[gd_scene load_steps=7 format=2]

[ext_resource path="res://theme/fifteentwenty.theme" type="Theme" id=1]
[ext_resource path="res://scripts/editor.gd" type="Script" id=3]
[ext_resource path="res://objects/scene_editor.tscn" type="PackedScene" id=4]
[ext_resource path="res://scripts/background.gd" type="Script" id=5]

[sub_resource type="StyleBoxFlat" id=1]
bg_color = Color( 0, 0, 0, 1 )

[sub_resource type="StyleBoxFlat" id=2]
bg_color = Color( 0, 0, 0, 0.196078 )
draw_center = false

[node name="main" type="Node2D"]

[node name="background" type="PanelContainer" parent="."]
margin_right = 1280.0
margin_bottom = 720.0
theme = ExtResource( 1 )
custom_styles/panel = SubResource( 1 )
script = ExtResource( 5 )
__meta__ = {
"_edit_use_anchors_": false
}

[node name="main_scene" parent="background" instance=ExtResource( 4 )]
margin_right = 1280.0
margin_bottom = 720.0
background = true

[node name="editor" type="PanelContainer" parent="."]
margin_right = 500.0
margin_bottom = 500.0
theme = ExtResource( 1 )
custom_styles/panel = SubResource( 2 )
script = ExtResource( 3 )
__meta__ = {
"_edit_use_anchors_": false
}
